<svg width="345" height="163" viewBox="0 0 345 163" fill="none" xmlns="http://www.w3.org/2000/svg">
<path d="M144.294 2.2074L134.527 8.29812L140.474 15.7423M144.294 2.2074H177.973M144.294 2.2074L161.302 22.5098M177.973 2.2074L187.234 8.29812L181.531 15.7423M177.973 2.2074L161.302 22.5098M161.302 22.5098L167.532 34.0145L181.531 15.7423M161.302 22.5098L155.071 34.0145L140.474 15.7423M161.302 22.5098V49.0721M161.302 146.185H118.192V137.557M161.302 146.185H204.242V137.557M161.302 146.185V126.56M118.192 61.7611V124.191M204.242 61.7611V124.191M140.474 15.7423L102.027 29.1081L94.0539 124.191M118.192 137.557H92.9332L94.0539 124.191M118.192 137.557V124.191M204.242 137.557H229.333L228.192 124.191M204.242 137.557V124.191M181.531 15.7423L220.072 29.1081L228.192 124.191M161.302 49.0721H166.522M161.302 49.0721V75.1268M161.302 75.1268H166.522M161.302 75.1268V100.674M161.302 100.674H166.522M161.302 100.674V126.56M161.302 126.56H166.522M94.0539 124.191H118.192M204.242 124.191H228.192" stroke="#3AAB3E" stroke-width="4" stroke-linecap="round" stroke-linejoin="round"/>
<path d="M282.172 17.1722L265.93 22.8199L254.592 44.7998L260.721 83.2648H282.172V66.9324M282.172 17.1722H288.454L299.179 33.0467M282.172 17.1722V39.3048M282.172 17.1722C280.435 16.8161 276.962 15.1269 276.962 11.2193C276.962 7.31178 280.435 6.13137 282.172 6.02961H316.186C317.923 5.82609 321.396 6.5791 321.396 11.2193C321.396 15.8595 317.923 17.1213 316.186 17.1722M299.179 33.0467L310.211 17.1722H316.186M299.179 33.0467V94.4074M316.186 17.1722L332.734 22.8199L343 44.7998L338.25 83.2648H316.186V66.9324M316.186 17.1722V39.3048M326.912 55.9425H316.186V66.9324M326.912 55.9425V44.7998M326.912 55.9425V66.9324M271.6 55.9425H282.172V66.9324M271.6 55.9425V44.7998M271.6 55.9425V66.9324M271.6 66.9324V94.4074H299.179M271.6 66.9324H282.172M316.186 66.9324H326.912M326.912 66.9324V94.4074H299.179" stroke="#FFB800" stroke-width="4" stroke-linecap="round" stroke-linejoin="round"/>
<path d="M50.6567 63.14V54H6.64873V63.14M50.6567 63.14H41.5659M50.6567 63.14C52.3746 66.3896 53.4592 71.6077 54.1202 77.1763M6.64873 63.14H15.533M6.64873 63.14C5.02144 66.0728 3.92818 71.3903 3.21317 77.1763M48.5906 151.384L54.9956 97.7413C55.1343 92.9381 55.0174 84.7344 54.1202 77.1763M48.5906 151.384V160.089H32.9916V151.384M48.5906 151.384H32.9916M28.3428 89.1453L32.9916 97.7413V151.384M28.3428 89.1453L23.9007 97.7413V151.384M28.3428 89.1453V63.14M28.3428 89.1453H22.1445M28.3428 89.1453H34.5411M8.61153 151.384V160.089H23.9007V151.384M8.61153 151.384L2 97.7413C2 92.825 2.29411 84.6136 3.21317 77.1763M8.61153 151.384H23.9007M15.533 63.14C15.4641 65.2436 14.7272 70.082 12.3305 72.6064C9.93384 75.1307 5.25367 76.7048 3.21317 77.1763M15.533 63.14H28.3428M41.5659 63.14C41.4626 65.2436 41.9998 70.082 44.975 72.6064C47.9501 75.1307 52.3115 76.7048 54.1202 77.1763M41.5659 63.14H28.3428" stroke="#FFB800" stroke-width="4" stroke-linecap="round" stroke-linejoin="round"/>
</svg>
