<?xml version="1.0" encoding="utf-8"?>
<!-- Generator: Adobe Illustrator 21.1.0, SVG Export Plug-In . SVG Version: 6.00 Build 0)  -->
<svg version="1.1" id="Слой_1" xmlns="http://www.w3.org/2000/svg" xmlns:xlink="http://www.w3.org/1999/xlink" x="0px" y="0px"
	 viewBox="0 0 200.4 192.6" style="enable-background:new 0 0 200.4 192.6;" xml:space="preserve">
<style type="text/css">
	.st0{fill:#3AAB3E;}
	.st1{fill:#FFB800;}
</style>
<g>
	<path class="st0" d="M115.9,148.8h-15.1c-1.1,0-2-0.9-2-2s0.9-2,2-2h13.1V74.4c0-1.1,0.9-2,2-2s2,0.9,2,2v48.3h20.3l-3.9-44.2
		c-0.1-1.1,0.7-2.1,1.8-2.2c1.1-0.1,2.1,0.7,2.2,1.8l4.1,46.3c0,0,0,0,0,0l1.2,13.4c0,0.6-0.1,1.1-0.5,1.5c-0.4,0.4-0.9,0.6-1.5,0.6
		h-23.7v6.7C117.9,147.9,117,148.8,115.9,148.8z M117.9,136.1h21.5l-0.8-9.4h-20.7V136.1z M71.9,148.8H27.8c-1.1,0-2-0.9-2-2v-6.7H2
		c-0.6,0-1.1-0.2-1.5-0.6c-0.4-0.4-0.6-1-0.5-1.5l1.1-13.4c0,0,0,0,0,0l8.2-95.6c0.1-0.8,0.6-1.5,1.3-1.7l36.6-12.5L43,9.4
		c-0.4-0.4-0.5-1-0.4-1.6c0.1-0.6,0.4-1.1,0.9-1.4l10-6.1c0,0,0,0,0,0c0,0,0,0,0,0c0,0,0,0,0,0c0.1-0.1,0.2-0.1,0.3-0.2c0,0,0,0,0,0
		c0,0,0,0,0,0c0.1,0,0.1,0,0.2-0.1C54.2,0,54.4,0,54.6,0H89c0.2,0,0.4,0,0.6,0.1c0,0,0,0,0,0l0,0c0,0,0,0,0,0c0,0,0,0,0,0
		c0,0,0,0,0,0c0.1,0,0.3,0.1,0.4,0.2c0,0,0,0,0,0c0,0,0.1,0,0.1,0.1l9.5,6.1c0.5,0.3,0.8,0.8,0.9,1.3c0.1,0.6,0,1.1-0.4,1.6
		l-4.1,5.3l36.8,12.5c0.7,0.3,1.3,0.9,1.3,1.7l2.9,28.2c0.1,1.1-0.7,2.1-1.8,2.2c-1.1,0.1-2.1-0.7-2.2-1.8l-2.8-27L93.3,18
		L79.9,35.2c-0.4,0.5-1.1,0.8-1.7,0.8c-0.7-0.1-1.3-0.4-1.6-1l-2.6-4.8v16.9h3.3c1.1,0,2,0.9,2,2s-0.9,2-2,2h-3.3v27.2
		c0,1.1-0.9,2-2,2s-2-0.9-2-2V30.2L67.3,35c-0.3,0.6-0.9,1-1.6,1c-0.7,0.1-1.3-0.2-1.7-0.7L50,18L13.2,30.5l-7.9,92.2h20.5V61.9
		c0-1.1,0.9-2,2-2s2,0.9,2,2v82.9h42.1c1.1,0,2,0.9,2,2S73,148.8,71.9,148.8z M4.2,136.1h21.7v-9.4H5L4.2,136.1z M52.2,14.4l13,16
		l4.3-7.8L54.1,4.6l-6.6,4L52.2,14.4C52.2,14.3,52.2,14.4,52.2,14.4z M74.3,22.7l4.2,7.7L91,14.4c0,0,0,0,0.1-0.1l4.5-5.7l-6.2-4
		L74.3,22.7z M58.9,4l13.1,15.3L84.7,4H58.9z"/>
</g>
<g>
	<path class="st1" d="M121.8,164.6c-28,0-50.7-22.7-50.7-50.7s22.7-50.7,50.7-50.7s50.7,22.7,50.7,50.7S149.7,164.6,121.8,164.6z
		 M121.8,67.2c-25.8,0-46.7,21-46.7,46.7c0,25.8,21,46.7,46.7,46.7c25.8,0,46.7-21,46.7-46.7C168.5,88.1,147.5,67.2,121.8,67.2z"/>
</g>
<g>
	<path class="st1" d="M189.1,192.6C189.1,192.6,189.1,192.6,189.1,192.6c-0.5,0-1-0.2-1.4-0.6l-29.4-29.5c-0.8-0.8-0.8-2,0-2.8
		l3.2-3.2l-5.5-5.5c-0.8-0.8-0.8-2,0-2.8s2-0.8,2.8,0l5.5,5.5l3.2-3.2c0.4-0.4,0.9-0.6,1.4-0.6c0.5,0,1,0.2,1.4,0.6l29.4,29.5
		c0.8,0.8,0.8,2,0,2.8l-9.3,9.3C190.1,192.4,189.6,192.6,189.1,192.6z M162.4,161l26.6,26.7l6.5-6.5l-26.6-26.7l-3.2,3.2l0,0
		L162.4,161z"/>
</g>
</svg>
