<svg width="699" height="647" viewBox="0 0 699 647" fill="none" xmlns="http://www.w3.org/2000/svg">
<g style="mix-blend-mode:multiply">
<path d="M0 119.719L699 0.778809V528L0 647V119.719Z" fill="#74E779" fill-opacity="0.5"/>
</g>
</svg>
