<svg width="362" height="288" viewBox="0 0 362 288" fill="none" xmlns="http://www.w3.org/2000/svg">
<path d="M0 61.6835L362 0V226.267L0 288V61.6835Z" fill="url(#paint0_linear)" fill-opacity="0.2"/>
<defs>
<linearGradient id="paint0_linear" x1="181" y1="0" x2="181" y2="288" gradientUnits="userSpaceOnUse">
<stop stop-color="white"/>
<stop offset="1" stop-color="white" stop-opacity="0"/>
</linearGradient>
</defs>
</svg>
